ch3
A
4.0 4.0 3.0   # origin in Ang
          1.0  0.0  0.0  # spanning vectors
	  0.0 8.0        # range (approximately that of the unit cell)
          0.0 1.0 0.0
	  0.0 8.0
          0.0 0.0 1.0
	  0.0 6.0
40 40 40   # Number of grid points along each axis
RHO
LDOS
BYE
